[
    {
        "name": "net",
        "names": [ "dotnet", "." ],
        "commands": [
            {
                "command": "dotnet",
                "useAnyArguments": true
            }
        ],
        "shortcuts": [
            {
                "name": "b",
                "commands": [
                    {
                        "command": "dotnet",
                        "arguments": "build",
                        "useAnyArguments": true
                    }
                ]
            },
            {
                "name": "c",
                "commands": [
                    {
                        "command": "dotnet",
                        "arguments": "clean",
                        "useAnyArguments": true
                    }
                ]
            },
            {
                "name": "f",
                "commands": [
                    {
                        "command": "dotnet",
                        "arguments": "format",
                        "useAnyArguments": true
                    }
                ]
            },
            {
                "name": "p",
                "commands": [
                    {
                        "command": "dotnet",
                        "arguments": "publish",
                        "useAnyArguments": true
                    }
                ]
            },
            {
                "name": "pa",
                "commands": [
                    {
                        "command": "dotnet",
                        "arguments": "pack",
                        "useAnyArguments": true
                    }
                ]
            },
            {
                "name": "r",
                "commands": [
                    {
                        "command": "dotnet",
                        "arguments": "run",
                        "useAnyArguments": true
                    }
                ]
            },
            {
                "name": "re",
                "commands": [
                    {
                        "command": "dotnet",
                        "arguments": "restore",
                        "useAnyArguments": true
                    }
                ]
            },
            {
                "name": "t",
                "commands": [
                    {
                        "command": "dotnet",
                        "arguments": "test",
                        "useAnyArguments": true
                    }
                ]
            },
            {
                "name": "to",
                "commands": [
                    {
                        "command": "dotnet",
                        "arguments": "tool",
                        "useAnyArguments": true
                    }
                ]
            },
            {
                "name": "s",
                "options": [
                    {
                        "shortName": "-nt",
                        "longName": "--no-test",
                        "description": "Disabled dotnet test",
                        "required": false,
                        "type": "noValue"
                    }
                ],
                "commands": [
                    {
                        "command": "dotnet",
                        "arguments": "test -c Release /p:CoverletOutput=./TestResults/ /p:CollectCoverage=true /p:CoverletOutputFormat=opencover",
                        "useAnyArguments": true,
                        "optionToDisable": "-nt"
                    },
                    {
                        "command": "reportgenerator",
                        "arguments": "-reports:\"./TestResults/coverage.opencover.xml\" -targetdir:\"coveragereport\" -reporttypes:Html",
                        "useAnyArguments": false
                    }
                ]
            },
            {
                "name": "u",
                "commands": [
                    {
                        "command": "dotnet",
                        "arguments": "user-secrets",
                        "useAnyArguments": true
                    }
                ],
                "shortcuts": [
                    {
                        "name": "i",
                        "commands": [
                            {
                                "command": "dotnet",
                                "arguments": "user-secrets init",
                                "useAnyArguments": true
                            }
                        ]
                    },
                    {
                        "name": "l",
                        "commands": [
                            {
                                "command": "dotnet",
                                "arguments": "user-secrets list",
                                "useAnyArguments": true
                            }
                        ]
                    },
                    {
                        "name": "s",
                        "commands": [
                            {
                                "command": "dotnet",
                                "arguments": "user-secrets set",
                                "useAnyArguments": true
                            }
                        ]
                    },
                    {
                        "name": "r",
                        "commands": [
                            {
                                "command": "dotnet",
                                "arguments": "user-secrets remove",
                                "useAnyArguments": true
                            }
                        ]
                    }
                ]
            }
        ]
    },
    {
        "name": "g",
        "names": [ "git" ],
        "commands": [
            {
                "command": "git",
                "useAnyArguments": true
            }
        ],
        "shortcuts": [
            {
                "name": "d",
                "commands": [
                    {
                        "command": "git",
                        "arguments": "stash -u",
                        "useAnyArguments": false
                    },
                    {
                        "command": "git",
                        "arguments": "checkout develop",
                        "useAnyArguments": false
                    },
                    {
                        "command": "git",
                        "arguments": "pull -r",
                        "useAnyArguments": false
                    }
                ]
            },
            {
                "name": "m",
                "commands": [
                    {
                        "command": "git",
                        "arguments": "stash -u",
                        "useAnyArguments": false
                    },
                    {
                        "command": "git",
                        "arguments": "checkout main",
                        "useAnyArguments": false
                    },
                    {
                        "command": "git",
                        "arguments": "pull -r",
                        "useAnyArguments": false
                    }
                ]
            },
            {
                "name": "f",
                "commands": [
                    {
                        "command": "git",
                        "arguments": "fetch",
                        "useAnyArguments": true
                    }
                ]
            },
            {
                "name": "sp",
                "commands": [
                    {
                        "command": "git",
                        "arguments": "stash pop",
                        "useAnyArguments": true
                    }
                ]
            },
            {
                "name": "s",
                "commands": [
                    {
                        "command": "git",
                        "arguments": "status",
                        "useAnyArguments": true
                    }
                ]
            },
            {
                "name": "pf",
                "commands": [
                    {
                        "command": "git",
                        "arguments": "push --force-with-lease",
                        "useAnyArguments": true
                    }
                ]
            },
            {
                "name": "st",
                "commands": [
                    {
                        "command": "git",
                        "arguments": "stash -u",
                        "useAnyArguments": true
                    }
                ]
            },
            {
                "name": "pr",
                "commands": [
                    {
                        "command": "git",
                        "arguments": "pull -r",
                        "useAnyArguments": true
                    }
                ]
            },
            {
                "name": "b",
                "commands": [
                    {
                        "command": "git",
                        "arguments": "branch",
                        "useAnyArguments": true
                    }
                ],
                "shortcuts": [
                    {
                        "name": "clean",
                        "commands": [
                            {
                                "command": "git",
                                "arguments": "branch --merged | grep -v \"master\\|main\\|develop\" | xargs git branch -D",
                                "useAnyArguments": true
                            }
                        ]
                    }
                ]
            },
            {
                "name": "c",
                "commands": [
                    {
                        "command": "git",
                        "arguments": "stash -u",
                        "useAnyArguments": false
                    },
                    {
                        "command": "git",
                        "arguments": "checkout ",
                        "useAnyArguments": true
                    },
                    {
                        "command": "git",
                        "arguments": "pull -r",
                        "useAnyArguments": false
                    }
                ]
            },
            {
                "name": "n",
                "options": [
                    {
                        "shortName": "-b",
                        "longName": "--branch",
                        "description": "Branch name",
                        "required": true,
                        "type": "singleValue"
                    }
                ],
                "commands": [
                    {
                        "command": "ad",
                        "arguments": "g d",
                        "useAnyArguments": false
                    },
                    {
                        "command": "git",
                        "arguments": "checkout",
                        "useAnyArguments": false,
                        "useOptions": [ "-b" ]
                    }
                ]
            },
            {
                "name": "nm",
                "options": [
                    {
                        "shortName": "-b",
                        "longName": "--branch",
                        "description": "Branch name",
                        "required": true,
                        "type": "singleValue"
                    }
                ],
                "commands": [
                    {
                        "command": "ad",
                        "arguments": "g m",
                        "useAnyArguments": false
                    },
                    {
                        "command": "git",
                        "arguments": "checkout",
                        "useAnyArguments": false,
                        "useOptions": [ "-b" ]
                    }
                ]
            }
        ]
    },
    {
        "name": "kub",
        "names": [ "k", "kubectl" ],
        "commands": [
            {
                "command": "kubectl",
                "useAnyArguments": true
            }
        ],
        "shortcuts": [
            {
                "name": "c",
                "names": [ "context" ],
                "commands": [
                    {
                        "command": "kubectl",
                        "arguments": " config current-context",
                        "useAnyArguments": true
                    }
                ],
                "shortcuts": [
                    {
                        "name": "ls",
                        "commands": [
                            {
                                "command": "kubectl",
                                "arguments": "config get-contexts",
                                "useAnyArguments": true
                            }
                        ]
                    },
                    {
                        "name": "u",
                        "commands": [
                            {
                                "command": "kubectl",
                                "arguments": " config use-context",
                                "useAnyArguments": true
                            }
                        ]
                    }
                ]
            },
            {
                "name": "pf",
                "commands": [
                    {
                        "command": "kubectl",
                        "arguments": "port-forward",
                        "useAnyArguments": true
                    }
                ]
            },
            {
                "name": "gp",
                "commands": [
                    {
                        "command": "kubectl",
                        "arguments": "get pods",
                        "useAnyArguments": true
                    }
                ]
            },
            {
                "name": "gc",
                "commands": [
                    {
                        "command": "kubectl",
                        "arguments": "get configmap",
                        "useAnyArguments": true
                    }
                ]
            },
            {
                "name": "gs",
                "commands": [
                    {
                        "command": "kubectl",
                        "arguments": "get services",
                        "useAnyArguments": true
                    }
                ]
            },
            {
                "name": "gse",
                "commands": [
                    {
                        "command": "kubectl",
                        "arguments": "get secrets",
                        "useAnyArguments": true
                    }
                ]
            },
            {
                "name": "gn",
                "commands": [
                    {
                        "command": "kubectl",
                        "arguments": "get namespaces",
                        "useAnyArguments": true
                    }
                ]
            },
            {
                "name": "gi",
                "commands": [
                    {
                        "command": "kubectl",
                        "arguments": "get ingress",
                        "useAnyArguments": true
                    }
                ]
            },
            {
                "name": "gd",
                "commands": [
                    {
                        "command": "kubectl",
                        "arguments": "get deployment",
                        "useAnyArguments": true
                    }
                ]
            },
            {
                "name": "gj",
                "commands": [
                    {
                        "command": "kubectl",
                        "arguments": "get jobs",
                        "useAnyArguments": true
                    }
                ]
            },
            {
                "name": "rp",
                "commands": [
                    {
                        "command": "kubectl",
                        "arguments": "delete pods",
                        "useAnyArguments": true
                    }
                ]
            },
            {
                "name": "l",
                "commands": [
                    {
                        "command": "kubectl",
                        "arguments": "logs",
                        "useAnyArguments": true
                    }
                ]
            },
            {
                "name": "dp",
                "commands": [
                    {
                        "command": "kubectl",
                        "arguments": "describe pods",
                        "useAnyArguments": true
                    }
                ]
            },
            {
                "name": "di",
                "commands": [
                    {
                        "command": "kubectl",
                        "arguments": "describe ingress",
                        "useAnyArguments": true
                    }
                ]
            },
            {
                "name": "ds",
                "commands": [
                    {
                        "command": "kubectl",
                        "arguments": "describe service",
                        "useAnyArguments": true
                    }
                ]
            },
            {
                "name": "dse",
                "commands": [
                    {
                        "command": "kubectl",
                        "arguments": "describe secret",
                        "useAnyArguments": true
                    }
                ]
            },
            {
                "name": "dd",
                "commands": [
                    {
                        "command": "kubectl",
                        "arguments": "describe deployment",
                        "useAnyArguments": true
                    }
                ]
            },
            {
                "name": "dc",
                "commands": [
                    {
                        "command": "kubectl",
                        "arguments": "describe configmap",
                        "useAnyArguments": true
                    }
                ]
            }
        ]
    },
    {
        "name": "commit",
        "options": [
            {
                "shortName": "-m",
                "longName": "--message",
                "description": "commit message",
                "required": true,
                "type": "singleValue"
            }
        ],
        "commands": [
            {
                "command": "git",
                "arguments": "add .",
                "useAnyArguments": false
            },
            {
                "command": "git",
                "arguments": "commit",
                "useAnyArguments": false,
                "useOptions": [ "-m" ]
            },
            {
                "command": "git",
                "arguments": "pull -r",
                "useAnyArguments": false
            },
            {
                "command": "git",
                "arguments": "push",
                "useAnyArguments": false
            }
        ]
    },
    {
        "name": "to",
        "commands": [
            {
                "command": "adt",
                "useAnyArguments": true
            }
        ]
    },
    {
        "name": "d",
        "commands": [
            {
                "command": "docker",
                "useAnyArguments": true
            }
        ],
        "shortcuts": [
            {
                "name": "psa",
                "commands": [
                    {
                        "command": "docker",
                        "arguments": "ps -a",
                        "useAnyArguments": true
                    }
                ]
            },
            {
                "name": "s",
                "commands": [
                    {
                        "command": "docker",
                        "arguments": "start",
                        "useAnyArguments": true
                    }
                ]
            },
            {
                "name": "st",
                "commands": [
                    {
                        "command": "docker",
                        "arguments": "stop",
                        "useAnyArguments": true
                    }
                ]
            },
            {
                "name": "r",
                "commands": [
                    {
                        "command": "docker",
                        "arguments": "run",
                        "useAnyArguments": true
                    }
                ]
            }
        ]
    },
    {
        "name": "dc",
        "commands": [
            {
                "command": "docker-compose",
                "useAnyArguments": true
            }
        ],
        "shortcuts": [
            {
                "name": "u",
                "commands": [
                    {
                        "command": "docker-compose",
                        "arguments": "up -d",
                        "useAnyArguments": true
                    }
                ]
            },
            {
                "name": "d",
                "commands": [
                    {
                        "command": "docker-compose",
                        "arguments": "down",
                        "useAnyArguments": true
                    }
                ]
            }
        ]
    }
]
